# Created by Octave 3.0.3, Tue Nov 02 12:26:27 2010 CET <eadli@mac-roots-macbook.local>
# name: ramp_up
# type: matrix
# rows: 1200
# columns: 1
 0
 0
 0
 0
 0
 0
 0
 0
 0
 0
 0
 0
 1
 0
 0
 0
 0
 0
 0
 0
 0
 0
 0
 1
 0
 0
 0
 0
 0
 0
 0
 0
 0
 0
 1
 0
 1
 0
 0
 0
 0
 0
 0
 0
 1
 0
 1
 1
 0
 0
 0
 0
 0
 0
 0
 0
 0
 0
 1
 0
 1
 0
 0
 0
 0
 0
 0
 0
 1
 0
 1
 1
 0
 0
 0
 0
 0
 0
 0
 0
 0
 0
 1
 0
 1
 0
 0
 0
 0
 1
 0
 0
 1
 0
 1
 1
 0
 0
 0
 0
 0
 0
 0
 1
 0
 0
 1
 0
 1
 0
 0
 0
 0
 1
 0
 0
 1
 0
 1
 1
 0
 0
 0
 0
 0
 0
 0
 1
 0
 0
 1
 0
 1
 0
 0
 0
 0
 1
 0
 0
 1
 0
 1
 1
 1
 0
 0
 0
 0
 1
 0
 1
 0
 0
 1
 0
 1
 0
 0
 0
 0
 1
 0
 0
 1
 0
 1
 1
 1
 0
 0
 0
 0
 1
 0
 1
 0
 0
 1
 0
 1
 0
 0
 0
 0
 1
 0
 0
 1
 0
 1
 1
 1
 0
 0
 0
 1
 1
 0
 1
 0
 0
 1
 0
 1
 0
 0
 0
 0
 1
 0
 0
 1
 1
 1
 1
 1
 0
 0
 0
 1
 1
 0
 1
 0
 0
 1
 0
 1
 0
 0
 0
 0
 1
 1
 0
 1
 1
 1
 1
 1
 0
 0
 0
 1
 1
 0
 1
 0
 0
 1
 0
 1
 0
 0
 0
 0
 1
 1
 0
 1
 1
 1
 1
 1
 0
 0
 0
 1
 1
 0
 1
 0
 0
 1
 0
 1
 0
 0
 1
 0
 1
 1
 0
 1
 1
 1
 1
 1
 0
 0
 0
 1
 1
 0
 1
 0
 0
 1
 0
 1
 0
 0
 1
 0
 1
 1
 0
 1
 1
 1
 1
 1
 0
 0
 0
 1
 1
 0
 1
 0
 1
 1
 0
 1
 0
 0
 1
 0
 1
 1
 0
 1
 1
 1
 1
 1
 0
 0
 0
 1
 1
 0
 1
 0
 1
 1
 0
 1
 0
 0
 1
 0
 1
 1
 0
 1
 1
 1
 1
 1
 0
 1
 0
 1
 1
 0
 1
 0
 1
 1
 0
 1
 0
 0
 1
 0
 1
 1
 0
 1
 1
 1
 1
 1
 0
 1
 0
 1
 1
 0
 1
 0
 1
 1
 0
 1
 0
 0
 1
 0
 1
 1
 0
 1
 1
 1
 1
 1
 1
 1
 0
 1
 1
 0
 1
 0
 1
 1
 0
 1
 0
 0
 1
 0
 1
 1
 1
 1
 1
 1
 1
 1
 1
 1
 0
 1
 1
 0
 1
 0
 1
 1
 0
 1
 0
 0
 1
 0
 1
 1
 1
 1
 1
 1
 1
 1
 1
 1
 0
 1
 1
 0
 1
 0
 1
 1
 0
 1
 0
 0
 1
 0
 1
 1
 1
 1
 1
 1
 1
 1
 1
 1
 0
 1
 1
 0
 1
 0
 1
 1
 0
 1
 0
 0
 1
 0
 1
 1
 1
 1
 1
 1
 1
 1
 1
 1
 0
 1
 1
 0
 1
 0
 1
 1
 0
 1
 0
 0
 1
 0
 1
 1
 1
 1
 1
 1
 1
 1
 1
 1
 0
 1
 1
 0
 1
 0
 1
 1
 0
 1
 0
 1
 1
 0
 1
 1
 1
 1
 1
 1
 1
 1
 1
 1
 0
 1
 1
 0
 1
 0
 1
 1
 0
 1
 0
 1
 1
 0
 1
 1
 1
 1
 1
 1
 1
 1
 1
 1
 0
 1
 1
 0
 1
 0
 1
 1
 0
 1
 0
 1
 1
 0
 1
 1
 1
 1
 1
 1
 1
 1
 1
 1
 0
 1
 1
 0
 1
 0
 1
 1
 0
 1
 0
 1
 1
 0
 1
 1
 1
 1
 1
 1
 1
 1
 1
 1
 0
 1
 1
 0
 1
 0
 1
 1
 0
 1
 0
 1
 1
 0
 1
 1
 1
 1
 1
 1
 1
 1
 1
 1
 0
 1
 1
 1
 1
 0
 1
 1
 0
 1
 0
 1
 1
 0
 1
 1
 1
 1
 1
 1
 1
 1
 1
 1
 0
 1
 1
 1
 1
 1
 1
 1
 0
 1
 0
 1
 1
 0
 1
 1
 1
 1
 1
 1
 1
 1
 1
 1
 0
 1
 1
 1
 1
 1
 1
 1
 0
 1
 0
 1
 1
 0
 1
 1
 1
 1
 1
 1
 1
 1
 1
 1
 0
 1
 1
 1
 1
 1
 1
 1
 0
 1
 0
 1
 1
 1
 1
 1
 1
 1
 1
 1
 1
 1
 1
 1
 0
 1
 1
 1
 1
 1
 1
 1
 0
 1
 0
 1
 1
 1
 1
 1
 1
 1
 1
 1
 1
 1
 1
 1
 0
 1
 1
 1
 1
 1
 1
 1
 0
 1
 0
 1
 1
 1
 1
 1
 1
 1
 1
 1
 1
 1
 1
 1
 1
 1
 1
 1
 1
 1
 1
 1
 0
 1
 0
 1
 1
 1
 1
 1
 1
 1
 1
 1
 1
 1
 1
 1
 1
 1
 1
 1
 1
 1
 1
 1
 0
 1
 0
 1
 1
 1
 1
 1
 1
 1
 1
 1
 1
 1
 1
 1
 1
 1
 1
 1
 1
 1
 1
 1
 0
 1
 0
 1
 1
 1
 1
 1
 1
 1
 1
 1
 1
 1
 1
 1
 1
 1
 1
 1
 1
 1
 1
 1
 0
 1
 0
 1
 1
 1
 1
 1
 1
 1
 1
 1
 1
 1
 1
 1
 1
 1
 1
 1
 1
 1
 1
 1
 0
 1
 1
 1
 1
 1
 1
 1
 1
 1
 1
 1
 1
 1
 1
 1
 1
 1
 1
 1
 1
 1
 1
 1
 0
 1
 1
 1
 1
 1
 1
 1
 1
 1
 1
 1
 1
 1
 1
 1
 1
 1
 1
 1
 1
 1
 1
 1
 0
 1
 1
 1
 1
 1
 1
 1
 1
 1
 1
 1
 1
 1
 1
 1
 1
 1
 1
 1
 1
 1
 1
 1
 0
 1
 1
 1
 1
 1
 1
 1
 1
 1
 1
 1
 1
 1
 1
 1
 1
 1
 1
 1
 1
 1
 1
 1
 0
 1
 1
 1
 1
 1
 1
 1
 1
 1
 1
 1
 1
 1
 1
 1
 1
 1
 1
 1
 1
 1
 1
 1
 1
 1
 1
 1
 1
 1
 1
 1
 1
 1
 1
 1
 1
 1
 1
 1
 1
 1
 1
 1
 1
 1
 1
 1
 1
 1
 1
 1
 1
 1
 1
 1
 1
 1
 1
 1
 1
 1
 1
 1
 1
 1
 1
 1
 1
 1
 1
 1
 1
 1
 1
 1
 1
 1
 1
 1
 1
 1
 1
 1
 1
 1
 1
 1
 1
 1
 1
 1
 1
 1
 1
 1
 1
 1
 1
 1
 1
 1
 1
 1
 1
 1
 1
 1
 1
 1
 1
 1
 1
 1
 1
 1
 1
 1
 1
 1
 1
 1
 1
 1
 1
 1
 1
 1
 1
 1
 1
 1
 1
 1
 1
 1
 1
 1
 1
 1
 1
 1
 1
 1
 1
 1
 1
 1
 1
 1
 1
 1
 1
 1
 1
 1
 1
 1
 1
 1
 1
 1
 1
 1
 1
 1
 1
 1
 1
 1
 1
 1
 1
 1
 1
 1
 1
 1
 1
 1
 1
 1
 1
 1
 1
 1
 1
 1
 1
 1
 1
 1
 1
 1
 1
 1
 1
 1
 1
 1
 1
 1
 1
 1
 1
